…
<img src="i-huc01-tests-1.png" title="plot of chunk huc01-tests" alt="plot of chunk huc01-tests" width="100%" />

Overall when the polygon count is very high (~20,000), the zonal aproach with precomputed weights and non precomputed weights performs the best. Precomputing the weights save a significant amount of memory in the process and ~4 seconds in total run time. These timings suggest that 20 years of daily GridMet data could be computed for the ~20,000 catchments in about 11 minutes (~30 seconds * 20 year + ~15 seconds). The `intersectr` approach requires way more memory despite the precomputation of weights and takes about 3 times as long as zonal. Lastly the `exactextract` methods timed out at the upper limit of 180 seconds we prescribed. 

## Example 02: Florida Counties

Our second example looks at the timings for an aggregation over a large area with a few  aggregation units. The gridded data is the same as example 1, and the aggregate units can be seen below:


```r
(florida <- AOI::aoi_get(state = "FL", county = "all"))
```

```
## Simple feature collection with 67 features and 12 fields
## Geometry type: MULTIPOLYGON
## Dimension:     XY
## Bounding box:  xmin: -87.63 ymin: 24.5 xmax: -80.03 ymax: 31
## Geodetic CRS:  NAD83
## First 10 features:
##     statefp countyfp countyns       affgeoid geoid      name lsad      aland    awater state_name state_abbr jurisdiction_type                       geometry
## 9        12      027 00294452 0500000US12027 12027    DeSoto   06 1649978040   6247257    Florida         FL             state MULTIPOLYGON (((-82.06 27.2...
## 97       12      109 00308371 0500000US12109 12109 St. Johns   06 1555793097 571962797    Florida         FL             state MULTIPOLYGON (((-81.68 30.1...
## 143      12      049 00295746 0500000US12049 12049    Hardee   06 1651867900   1439673    Florida         FL             state MULTIPOLYGON (((-82.05 27.6...
## 285      12      125 00306913 0500000US12125 12125     Union   06  630807237  16049079    Florida         FL             state MULTIPOLYGON (((-82.58 29.9...
## 398      12      005 00295738 0500000US12005 12005       Bay   06 1964402055 711451660    Florida         FL             state MULTIPOLYGON (((-85.99 30.3...
## 403      12      039 00306918 0500000US12039 12039   Gadsden   06 1337193228  31687293    Florida         FL             state MULTIPOLYGON (((-84.93 30.6...
## 404      12      073 00306916 0500000US12073 12073      Leon   06 1727171525  90453994    Florida         FL             state MULTIPOLYGON (((-84.72 30.3...
##  [ reached 'max' / getOption("max.print") -- omitted 3 rows ]
```
…
